#FIG 3.2  Produced by xfig version 3.2.5b
Landscape
Center
Metric
A4      
100.00
Single
-2
1200 2
2 3 1 1 0 7 50 -1 -1 4.000 0 0 -1 0 0 5
	 3465 5265 3465 6435 4410 5805 4410 4635 3465 5265
2 3 1 1 0 7 50 -1 -1 4.000 0 0 -1 0 0 5
	 3645 5265 3645 6435 4590 5805 4590 4635 3645 5265
2 3 0 1 0 7 50 -1 -1 0.000 0 0 -1 0 0 5
	 4455 5490 4455 5580 4545 5490 4545 5400 4455 5490
2 3 1 1 0 7 50 -1 -1 4.000 0 0 -1 0 0 5
	 3285 5265 3285 6435 4230 5805 4230 4635 3285 5265
2 3 0 1 0 7 50 -1 -1 0.000 0 0 -1 0 0 5
	 4005 5265 4005 6435 4950 5805 4950 4635 4005 5265
2 3 1 1 0 7 50 -1 -1 4.000 0 0 -1 0 0 5
	 3825 5265 3825 6435 4770 5805 4770 4635 3825 5265
2 3 1 1 0 7 50 -1 -1 3.000 0 0 -1 0 0 5
	 4230 5580 4230 5670 4320 5580 4320 5490 4230 5580
2 3 1 1 0 7 50 -1 -1 3.000 0 0 -1 0 0 5
	 4050 5580 4050 5670 4140 5580 4140 5490 4050 5580
2 3 1 1 0 7 50 -1 -1 3.000 0 0 -1 0 0 5
	 3600 5805 3600 5895 3690 5805 3690 5715 3600 5805
2 3 1 1 0 7 50 -1 -1 3.000 0 0 -1 0 0 5
	 3825 5535 3825 5625 3915 5535 3915 5445 3825 5535
3 2 0 1 0 7 50 -1 -1 0.000 0 1 0 8
	0 0 1.00 60.00 120.00
	 3510 6075 3645 5805 3870 5535 4095 5580 4275 5580 4500 5490
	 5085 5265 5445 5400
	 0.000 -1.000 -1.000 -1.000 -1.000 -1.000 -1.000 0.000
