#FIG 3.2  Produced by xfig version 3.2.5b
Landscape
Center
Metric
A4      
100.00
Single
-2
1200 2
2 3 0 1 0 7 50 -1 -1 0.000 0 0 -1 0 0 5
	 5490 5265 5490 6435 6435 5805 6435 4635 5490 5265
2 3 0 1 0 7 50 -1 -1 0.000 0 0 -1 0 0 5
	 3285 5265 3285 6435 4230 5805 4230 4635 3285 5265
2 3 0 1 0 7 50 -1 -1 0.000 0 0 -1 0 0 5
	 3465 5265 3465 6435 4410 5805 4410 4635 3465 5265
2 3 0 1 0 7 50 -1 -1 0.000 0 0 -1 0 0 5
	 3645 5265 3645 6435 4590 5805 4590 4635 3645 5265
2 3 0 1 0 7 50 -1 -1 0.000 0 0 -1 0 0 5
	 3825 5265 3825 6435 4770 5805 4770 4635 3825 5265
2 3 0 1 0 7 50 -1 -1 0.000 0 0 -1 0 0 5
	 4005 5265 4005 6435 4950 5805 4950 4635 4005 5265
2 3 0 1 0 7 50 -1 -1 0.000 0 0 -1 0 0 5
	 3285 5265 5490 5265 6435 4635 4230 4635 3285 5265
2 3 0 1 0 7 50 -1 -1 0.000 0 0 -1 0 0 5
	 4185 5265 4185 6435 5130 5805 5130 4635 4185 5265
2 1 0 1 0 7 50 -1 -1 0.000 0 0 -1 1 0 2
	0 0 1.00 60.00 120.00
	 2385 7020 7560 3600
2 3 0 1 0 7 50 -1 -1 0.000 0 0 -1 0 0 5
	 4365 5265 4365 6435 5310 5805 5310 4635 4365 5265
2 3 2 1 0 7 50 -1 -1 4.000 0 0 -1 0 0 5
	 6435 4635 8640 4635 9585 4005 7380 4005 6435 4635
2 3 2 1 0 7 50 -1 -1 4.000 0 0 -1 0 0 5
	 4230 5805 6435 5805 7380 5175 5175 5175 4230 5805
2 3 2 1 0 7 50 -1 -1 4.000 0 0 -1 0 0 5
	 5490 6435 7695 6435 8640 5805 6435 5805 5490 6435
2 1 0 1 0 7 50 -1 -1 0.000 0 0 -1 1 0 2
	0 0 1.00 60.00 120.00
	 2340 6435 10305 6435
2 3 2 1 0 7 50 -1 -1 4.000 0 0 -1 0 0 5
	 5490 5265 7695 5265 8640 4635 6435 4635 5490 5265
2 1 0 1 0 7 50 -1 -1 0.000 0 0 -1 1 0 2
	0 0 1.00 60.00 120.00
	 3285 7155 3285 1980
2 3 2 1 0 7 50 -1 -1 4.000 0 0 -1 0 0 5
	 3285 4091 3285 5261 4230 4631 4230 3461 3285 4091
2 3 2 1 0 7 50 -1 -1 4.000 0 0 -1 0 0 5
	 4222 4634 6427 4634 7372 4004 5167 4004 4222 4634
2 3 2 1 0 7 50 -1 -1 4.000 0 0 -1 0 0 5
	 4230 3456 4230 4626 5175 3996 5175 2826 4230 3456
2 3 2 1 0 7 50 -1 -1 4.000 0 0 -1 0 0 5
	 4225 3461 6430 3461 7375 2831 5170 2831 4225 3461
2 3 2 1 0 7 50 -1 -1 4.000 0 0 -1 0 0 5
	 6436 3457 6436 4627 7381 3997 7381 2827 6436 3457
2 3 2 1 0 7 50 -1 -1 4.000 0 0 -1 0 0 5
	 5491 4096 5491 5265 6436 4635 6436 3465 5491 4095
2 3 2 1 0 7 50 -1 -1 4.000 0 0 -1 0 0 5
	 5485 4098 7690 4098 8635 3468 6430 3468 5485 4098
2 3 2 1 0 7 50 -1 -1 4.000 0 0 -1 0 0 5
	 7692 4095 7692 5265 8637 4635 8637 3465 7692 4095
2 3 2 1 0 7 50 -1 -1 4.000 0 0 -1 0 0 5
	 7692 5269 7692 6439 8637 5809 8637 4639 7692 5269
2 3 2 1 0 7 50 -1 -1 4.000 0 0 -1 0 0 5
	 6435 5805 8640 5805 9585 5175 7380 5175 6435 5805
2 3 2 1 0 7 50 -1 -1 4.000 0 0 -1 0 0 5
	 8637 4642 8637 5812 9582 5182 9582 4012 8637 4642
2 3 2 1 0 7 50 -1 -1 4.000 0 0 -1 0 0 5
	 8641 3465 8641 4635 9586 4005 9586 2835 8641 3465
2 3 2 1 0 7 50 -1 -1 4.000 0 0 -1 0 0 5
	 6437 3466 8642 3466 9587 2836 7382 2836 6437 3466
2 3 2 1 0 7 50 -1 -1 4.000 0 0 -1 0 0 5
	 6435 4631 6435 5801 7380 5171 7380 4001 6435 4631
2 3 2 1 0 7 50 -1 -1 4.000 0 0 -1 0 0 5
	 3289 4091 5494 4091 6439 3461 4234 3461 3289 4091
4 0 0 50 -1 0 12 0.0000 4 135 690 3330 6705 0 1 2 3...\001
4 0 0 50 -1 0 12 0.0000 4 135 1305 5130 6705 Nt-1 Nt-1 Nt-2...\001
4 0 0 50 -1 0 12 0.0000 4 135 105 7560 6705 0\001
4 0 0 50 -1 0 12 0.0000 4 135 105 3105 6390 0\001
4 0 0 50 -1 0 12 0.0000 4 180 405 2790 5445 Ny-1\001
4 0 0 50 -1 0 12 0.0000 4 180 405 2790 5220 Ny-1\001
4 0 0 50 -1 0 12 0.0000 4 135 105 3105 4185 0\001
4 0 0 50 -1 0 12 0.0000 4 120 60 10260 6660 t\001
4 0 0 50 -1 0 12 0.0000 4 135 105 3060 2025 y\001
4 0 0 50 -1 0 12 0.0000 4 90 105 7605 3690 x\001
