p.64 - ex. 1.17: (recall (...) E_{m,k} and E_{m,k} (...)) deveria ser (recall (...) E_{m,k} and E_{n,l} (...))
p.104 - ex 2.19: \hat{a}_{m,n-l} -> \hat{a}_{k,n-l}
p.116 - eq 3.13: last line: k->(N-1)
p.163 - last formula k->s
p.192 (Example 5.6 - 2nd line) - various -> varies?
p.260 - ex.6.13b: D -> U
p.260 - ex.6.13b: N -> N/2
p.241 - eq 6.31: Missing 1/2